{
  "profiles": {
    "Framework.Auth": {
      "commandName": "Project",
      "launchBrowser": true,
      "environmentVariables": {
        "ASPNETCORE_ENVIRONMENT": "Development"
      },
      "applicationUrl": "https://localhost:58125;http://localhost:58126"
    }
  }
}